[
  {
    "id": "5f0320a1-11bc-41ea-b192-dca0da3ea5f4",
    "displayName": "User Admin",
    "username": "admin@schibsted.com",
    "salt": "e5bd4147-884c-4490-88a0-439189a19c08"
  },
  {
    "id": "373f5406-b2cb-44a7-8778-a46b7d813f6f",
    "displayName": "User 1",
    "username": "user1@schibsted.com",
    "salt": "58cbf2c2-fab2-4583-8d23-674b4cadbf8a"
  },
  {
    "id": "eb25e2c7-3393-41f0-bcb0-503bd7c722b1",
    "displayName": "User 2",
    "username": "user2@schibsted.com",
    "salt": "df05bfc5-c0fb-4ef7-ba37-73a7a204aee8"
  },
  {
    "id": "65222d22-92d1-418f-ac35-58de53913d5f",
    "displayName": "User 3",
    "username": "user3@schibsted.com",
    "salt": "d6803a7b-7f92-4a9a-9bd1-89181cf2deff"
  }
]
